{
    "event_date" : "2023-10-04",
    "event_time": "19:00",
    "event_location_name": "Soho Office - The Strand - 4th floor",
    "event_location_url": "https://goo.gl/maps/HsBRg3EvKezTPECj6",
    "event_name": "DeFi Study Group - Do your own research",
    "event_description": "Knowledge is power and a necessity that takes time and effort. See how CHM tries to address the problem. Let's listen to the stories of a bunch of CHM pioneers who tried and keep trying.",
    "event_teaser": "https://gitlab.com/crypto-hub-malta/events/-/raw/main/data/2023-10-04_teaser.jpg",
    "event_price": "free",
    "event_url": "https://www.facebook.com/events/7731976856889507",
    "event_booking_url": "https://www.facebook.com/events/7731976856889507",
    "event_speeches": [
        {
            "speech_title": "On CHM Study Groups",
            "speech_description": "A brief history of what's a Study Group, what was a PSG and, most importantly, why a Study Group",
            "speech_format": "speech",
            "speech_speakers": [
                {
                    "speaker_name": "damko",
                    "speaker_photo_url": "https://scontent.fmla1-1.fna.fbcdn.net/v/t39.30808-1/215764027_109060661452610_4271176841973134908_n.jpg?stp=dst-jpg_p200x200&_nc_cat=104&ccb=1-7&_nc_sid=fe8171&_nc_ohc=BKVc0mjADe8AX8W3Sco&_nc_ht=scontent.fmla1-1.fna&oh=00_AfCZoS_IX98OozOQeGgksc8UHrHjj1S5aTrhTI4KR7Xtpg&oe=651FF426",
                    "speaker_description": "Passioned about open source, privacy, security, crypto and finance. Far from being good at any of them hence in desperate need for learning.",
                    "speaker_links": [
                        {
                            "url": "https://dam.venturin.net",
                            "name": "website"
                        },
                        {
                            "url": "https://t.me/damianoventurin",
                            "name": "telegram"
                        }
                    ]
                }
            ],
            "speech_links": [
                {
                    "url": "https://www.facebook.com/cryptohubmt/videos/835498998033931",
                    "name": "Recording"
                }
            ]
        },
        {
            "speech_title": "On DeFi Group",
            "speech_description": "Learning on steroids: casting a light on how we can better and faster understand DeFi, all together.",
            "speech_format": "speech",
            "speech_speakers": [
                {
                    "speaker_name": "Franco",
                    "speaker_photo_url": "",
                    "speaker_description": "Franco has a background in Information Technology, currently researcher at MCAST",
                    "speaker_links": [
                        {
                            "url": "https://t.me/FrancoFarrugia",
                            "name": "telegram"
                        }
                    ]
                }
            ],
            "speech_links": []
        },
        {
            "speech_title": "On Arbitrum - an Ethereum Layer 2",
            "speech_description": "Why Layer 2 are necessary: a technical introduction and a real-life implementation example",
            "speech_format": "speech",
            "speech_speakers": [
                {
                    "speaker_name": "MJ",
                    "speaker_photo_url": "https://michjord0001.digital/images/20230510-MJ.jpg",
                    "speaker_description": "MJ is a Research Support Officer at University Malta with 5 years experience in blockchain",
                    "speaker_links": [
                        {
                            "url": "https://michjord0001.digital/",
                            "name": "Website"
                        },
                        {
                            "url": "https://www.linkedin.com/in/michjord0001/",
                            "name": "LinkedIn"
                        },
                        {
                            "url": "https://t.me/michjord0001",
                            "name": "Telegram"
                        }
                    ]
                },
                {
                    "speaker_name": "Sid",
                    "speaker_photo_url": "https://scontent.fmla1-1.fna.fbcdn.net/v/t39.30808-6/273420390_438173614436494_6817077188479775235_n.jpg?_nc_cat=109&ccb=1-7&_nc_sid=a2f6c7&_nc_ohc=hdTFjHcnlLAAX9R1wj6&_nc_ht=scontent.fmla1-1.fna&oh=00_AfBO2XLkP66iEvGNk2UlHqxViG0_AqlpKrmHa1QT3r1Wpg&oe=6520EF31",
                    "speaker_description": "Sid is a Blockchain Professional graduated from University of Malta in Blockchain and DLT",
                    "speaker_links": [
                        {
                            "url": "https://www.linkedin.com/in/jsidjain",
                            "name": "LinkedIn"
                        },
                        {
                            "url": "https://t.me/thatspsy",
                            "name": "telegram"
                        }
                    ]
                }
            ],
            "speech_links": [
                {
                    "url": "https://gitlab.com/crypto-hub-malta/events/-/raw/main/data/2023-10-04_slides_1.pdf",
                    "name": "Slides"
                }
            ]
        }
    ]
}