{
    "event_date" : "2023-09-13",
    "event_time": "19:00",
    "event_location_name": "Soho Office - The Strand - 4th floor",
    "event_location_url": "https://goo.gl/maps/HsBRg3EvKezTPECj6",
    "event_name": "The Lightning side of Bitcoin",
    "event_description": "Let there be light- with Bitcoin and its Lightning Network (LN).<br/>If you are reading this, you made it far into the dark, extended bear market. Come and hear how the Bitcoin’s LN can brighten it up for you a bit and meet other enthusiasts for casual networking.",
    "event_teaser": "https://gitlab.com/crypto-hub-malta/events/-/raw/main/data/2023-09-13_teaser.jpg",
    "event_price": "free",
    "event_url": "https://www.facebook.com/events/266269809614931?acontext=%7B%22event_action_history%22%3A[]%7D",
    "event_booking_url": "",
    "event_speeches": [
        {
            "speech_title": "Startup Festival Malta",
            "speech_description": "Anthony gives a roundup of what you should expect of StartupFestival Malta this 5-6th October.",
            "speech_format": "speech",
            "speech_speakers": [
                {
                    "speaker_name": "Anthony",
                    "speaker_photo_url": "https://conference.mavio.org/wp-content/uploads/sites/2/2014/10/profile-anthony-david-gatt.png",
                    "speaker_description": "Anthony is CMO at MaltaEnterprise - he has a background in assisting companies to relocate to Malta",
                    "speaker_links": [
                        {
                            "url": "https://mt.linkedin.com/in/anthonydavidgatt",
                            "name": "Linkedin"
                        }
                    ]
                }
            ],
            "speech_links": [
                {
                    "url": "https://www.facebook.com/cryptohubmt/videos/1573981589800580",
                    "name": "Recording"
                }
            ]
        },
        {
            "speech_title": "The Lightning Network",
            "speech_description": "Fabio introduces us to the Lightning Network, a groundbreaking protocol that facilitates instant Bitcoin payments and sparks a wave of unprecedented innovations.",
            "speech_format": "speech",
            "speech_speakers": [
                {
                    "speaker_name": "Fabio",
                    "speaker_photo_url": "",
                    "speaker_description": "Fabio is a dedicated Bitcoin educator and the creator of checkpointbitcoin.it, a leading online resource for Bitcoin education in Italy.",
                    "speaker_links": [
                        {
                            "url": "https://checkpointbitcoin.it/",
                            "name": "Educational website"
                        }
                    ]
                }
            ],
            "speech_links": [
                {
                    "url": "https://www.facebook.com/cryptohubmt/videos/1015045909809306",
                    "name": "Recording"
                }
            ]
        }
    ]
}