{
    "event_date" : "2023-12-06",
    "event_time": "19:00",
    "event_location_name": "Soho Office - The Strand - 4th floor",
    "event_location_url": "https://goo.gl/maps/HsBRg3EvKezTPECj6",
    "event_name": "Blockchain  Bridges and Interoperability",
    "event_description": "Let there be light- with Bitcoin and its Lightning Network (LN).<br/>If you are reading this, you made it far into the dark, extended bear market. Come and hear how the Bitcoin’s LN can brighten it up for you a bit and meet other enthusiasts for casual networking.",
    "event_teaser": "https://gitlab.com/crypto-hub-malta/events/-/raw/main/data/2023-12-06_teaser.jpg",
    "event_price": "free",
    "event_url": "https://www.facebook.com/events/326276070257795 ",
    "event_booking_url": "",
    "event_speeches": [
        {
            "speech_title": "Blockchain Bridges and Interoperability",
            "speech_description": "It will be the second basic introduction in a series of blockchain fundamentals required to build a decentralized future. ",
            "speech_format": "speech",
            "speech_speakers": [
                {
                    "speaker_name": "Matthew Felice Pace",
                    "speaker_photo_url": "",
                    "speaker_description": "Matthew Felice Pace the CEO of Simply Staking with share his insight on blockchain infrastructure.",
                    "speaker_links": [
                        {
                            "url": "https://simplystaking.com/",
                            "name": "Professional website"
                        }
                    ]
                }
            ],
            "speech_links": [
                {
                    "url": "https://gitlab.com/crypto-hub-malta/events/-/raw/main/data/2023-12-06_slides.pdf",
                    "name": "Slides"
                }
            ]
        }
    ]
}