{
    "event_date" : "2023-01-25",
    "event_time": "19:00",
    "event_location_name": "Soho Office - The Strand - 4th floor",
    "event_location_url": "https://goo.gl/maps/HsBRg3EvKezTPECj6",
    "event_name": "Democratizing Web3",
    "event_description": "coming soon",
    "event_teaser": "https://gitlab.com/crypto-hub-malta/events/-/raw/main/data/2023-01-25_teaser.jpg",
    "event_price": "free",
    "event_url": "",
    "event_booking_url": "",
    "event_speeches": [
        {
            "speech_title": "Democratizing Web3",
            "speech_description": "coming soon",
            "speech_format": "speech",
            "speech_speakers": [],
            "speech_links": []
        }
    ]
}
