{
    "event_date" : "2023-10-25",
    "event_time": "19:00",
    "event_location_name": "OyOy Bar - Spinola Bay",
    "event_location_url": "https://maps.app.goo.gl/8fM1Fpb9TBTwtTQ49",
    "event_name": "Intro to Blockchain Infrastructure",
    "event_description": "Every interaction on the blockchain is build on infrastructure- it is the sky we all live under. Tonight, we talk about how to hold up the sky by giving an introduction to blockchain infrastructure",
    "event_teaser": "https://gitlab.com/crypto-hub-malta/events/-/raw/main/data/2023-10-25_teaser.jpg",
    "event_price": "free",
    "event_url": "https://www.facebook.com/events/345977931252835",
    "event_booking_url": "",
    "event_speeches": [
        {
            "speech_title": "Introduction to blockchain infrastructure",
            "speech_description": "It will be the first basic introduction in a series of blockchain fundamentals required to build a decentralized future.",
            "speech_format": "speech",
            "speech_speakers": [
                {
                    "speaker_name": "Matthew Felice Pace",
                    "speaker_photo_url": "https://media.licdn.com/dms/image/D4E03AQF-r_7Koa-e5A/profile-displayphoto-shrink_800_800/0/1681456511165?e=1703721600&v=beta&t=ut5xn7qzzdsmNZdWDiQKTJFGIMnv0Zt1NtxvSh_pHSE",
                    "speaker_description": "Matthew Felice Pace is CEO of Simply Staking",
                    "speaker_links": [
                        {
                            "url": "https://www.linkedin.com/in/matthew-felice-pace-116b7a19/?originalSubdomain=mt",
                            "name": "Linkedin"
                        }
                    ]
                }
            ],
            "speech_links": []
        },
        {
            "speech_title": "The first digital nomad Network State",
            "speech_description": "",
            "speech_format": "speech",
            "speech_speakers": [
                {
                    "speaker_name": "Daniel Go",
                    "speaker_photo_url": "",
                    "speaker_description": "Daniel Go is the Founder of CoCo Network",
                    "speaker_links": []
                }
            ],
            "speech_links": []
        }
    ]
}