{
    "event_date" : "2024-04-24",
    "event_time": "19:00",
    "event_location_name": "Soho Office - The Strand - 4th floor",
    "event_location_url": "https://goo.gl/maps/HsBRg3EvKezTPECj6",
    "event_name": "Crypto Hub Malta - Corsair -  Going Plastic Neutral ",
    "event_description": "How the blockchain helps solve the global plastic crisis: become net-zero for plastic with CSR Plastic Credits!",
    "event_teaser": "https://gitlab.com/crypto-hub-malta/events/-/raw/main/data/2024-04-24_teaser.jpg",
    "event_price": "free",
    "event_url": "https://www.facebook.com/events/959899589053489 ",
    "event_booking_url": "",
    "event_speeches": [
        {
            "speech_title": "Corsair -  Going Plastic Neutral ",
            "speech_description": "Yes, blockchain technology can help to clean up the environment. Yes, Bitcoin uses a lot of electricity. We know. But did you know, that blockchain technology enables many new uses-cases? ",
            "speech_format": "speech",
            "speech_speakers": [
            {
                "speaker_name": "Philip",
                "speaker_photo_url": "",
                "speaker_description": "",
                "speaker_links": [
                    {
                        "url": "",
                        "name": ""
                    }

                ]
            },

            {
                "speaker_name": "Glen",
                "speaker_photo_url": "",
                "speaker_description": "",
                "speaker_links": [
                    {
                        "url": "",
                        "name": ""
                    }

                ]
            },

            {
                "speaker_name": "Elliot",
                "speaker_photo_url": "",
                "speaker_description": "",
                "speaker_links": [
                    {
                        "url": "",
                        "name": ""
                    }

                ]
            }


        ],
        "speech_links": []
        
        }
    ]
}
