{
    "event_date" : "2024-02-21",
    "event_time": "19:00",
    "event_location_name": "Soho Office - The Strand - 4th floor",
    "event_location_url": "https://goo.gl/maps/HsBRg3EvKezTPECj6",
    "event_name": "Crypto Hub Malta: Aleo",
    "event_description": "Privacy is normal. Aleo the a unique, layer-1 blockchain platform that makes this possible.",
    "event_teaser": "https://gitlab.com/crypto-hub-malta/events/-/raw/main/data/2024-02-21_teaser.jpg",
    "event_price": "free",
    "event_url": "https://www.facebook.com/events/6581799398588014 ",
    "event_booking_url": "",
    "event_speeches": [
        {
            "speech_title": "Aleo",
            "speech_description": "Aleo merges the programmability of Ethereum, the privacy provisions of Zcash, and the scalability offered by rollups. It is flexible, secure and fast. Join us tonight and learn how private applications are build on Aleo.",
            "speech_format": "speech",
            "speech_speakers": [
                {
                    "speaker_name": "Julian Azzopardi",
                    "speaker_photo_url": "",
                    "speaker_description": "Julian Azzopardi show-cases a trailblazing Web3 protocol where the development, deployment, and execution of zero-knowledge applications are simplified. He demonstrates how the need for a business development teams or a prover API can be removed by building on Aleo.",
                    "speaker_links": [
                        {
                            "url": "https://aleo.org/",
                            "name": ""
                        }

                    ]
                }
            ],
            "speech_links": []
        }
    ]
}
