{
    "event_date" : "2024-04-17",
    "event_time": "19:00",
    "event_location_name": "Soho Office - The Strand - 4th floor",
    "event_location_url": "https://goo.gl/maps/HsBRg3EvKezTPECj6",
    "event_name": "Crypto Hub Malta - Bitcoin vs Gold vs Real Estate  ",
    "event_description": "Join the discussion about 3 apocalyptic horsemen to beat inflation: Bitcoin vs Gold vs Real Estate.",
    "event_teaser": "https://gitlab.com/crypto-hub-malta/events/-/raw/main/data/2024-04-17_teaser.jpg",
    "event_price": "free",
    "event_url": "https://www.facebook.com/events/446807101353957 ",
    "event_booking_url": "",
    "event_speeches": [
        {
            "speech_title": "Bitcoin vs Gold vs Real Estate  ",
            "speech_description": "How to beat inflation? Bitcoin, Gold or Real Estate? This is what this evening is about. Make up your mind and share your opinion. ",
            "speech_format": "speech",
            "speech_speakers": [
                {
                    "speaker_name": "Antonio Gjorgiev",
                    "speaker_photo_url": "",
                    "speaker_description": "Antonio Gjorgiev with a background in financial law, who worked as a lawyer for many years. He lives in Malta and runs the biggest Crypto Educational channel in Macedonia in Macedonian language - Crypto Gemidzija. ",
                    "speaker_links": [
                        {
                            "url": "https://www.youtube.com/@cryptogemidzija",
                            "name": ""
                        }

                    ]
                }
            ],
            "speech_links": []
        }
    ]
}
