{
    "event_date" : "2024-05-15",
    "event_time": "19:00",
    "event_location_name": "Soho Office - The Strand - 4th floor",
    "event_location_url": "https://goo.gl/maps/HsBRg3EvKezTPECj6",
    "event_name": "Digital & Physical Assets: tokenized Real-World Assets",
    "event_description": "Tokenized Real-World Assets (RWA) are the final frontier of blockchain technology, serving as the bridge between digital and physical assets.",
    "event_teaser": "https://gitlab.com/crypto-hub-malta/events/-/raw/main/data/2024-05-15_teaser.jpg",
    "event_price": "free",
    "event_url": "https://www.facebook.com/events/1452369142370962",
    "event_booking_url": "",
    "event_speeches": [
        {
            "speech_title": "tokenized Real-World Assets (tRWA)",
            "speech_description": "Valeriu Costin, founder of Malta-based SnwoMan shares his insight on tokenized Real-World Assets (RWA) and their latest advancements. ",
            "speech_format": "speech",
            "speech_speakers": [
                {
                    "speaker_name": "Valeriu Costin",
                    "speaker_photo_url": "",
                    "speaker_description": "Valeriu Costin, founder of Malta-based SnwoMan.",
                    "speaker_links": [
                        {
                            "url": "https://snwoman.club/",
                            "name": ""
                        }

                    ]
                }
            ],
            "speech_links": []
        }
    ]
}
