{
    "event_date" : "2024-05-08",
    "event_time": "19:00",
    "event_location_name": "Soho Office - The Strand - 4th floor",
    "event_location_url": "https://goo.gl/maps/HsBRg3EvKezTPECj6",
    "event_name": "Crypto Hub Malta - Crypto and Tax in Malta",
    "event_description": "Navigating the tax compliance obligations when conducting activities involving crypto assets can be a considerable challenge.",
    "event_teaser": "https://gitlab.com/crypto-hub-malta/events/-/raw/main/data/2024-05-08_teaser.jpg",
    "event_price": "free",
    "event_url": "https://www.facebook.com/events/1170175477522084",
    "event_booking_url": "",
    "event_speeches": [
        {
            "speech_title": "WH Partners",
            "speech_description": "Tonight we demystify and explain crypto taxation in Malta. Learn the ins and outs of tax and crypto with an extended Q&A session.",
            "speech_format": "speech",
            "speech_speakers": [
                {
                    "speaker_name": "Aleksandr Belugin",
                    "speaker_photo_url": "",
                    "speaker_description": "Aleksandr is a tax lawyer, Associate at WH Partners, who specialized in his field of international tax law, transfer pricing rules, private client wealth practice, foundations and trusts.",
                    "speaker_links": [
                        {
                            "url": "",
                            "name": ""
                        }
                    ]
                }
            ],
            "speech_links": []
        }
    ]
}
