{
    "event_date" : "2024-05-22",
    "event_time": "19:00",
    "event_location_name": "Soho Office - The Strand - 4th floor",
    "event_location_url": "https://goo.gl/maps/HsBRg3EvKezTPECj6",
    "event_name": "WIDE - Web3 Identity going Live",
    "event_description": "Join us to learn more on everything credentials and why you should care.",
    "event_teaser": "https://gitlab.com/crypto-hub-malta/events/-/raw/main/data/2024-05-22_teaser.jpg",
    "event_price": "free",
    "event_url": "https://www.facebook.com/events/1398522020807187 ",
    "event_booking_url": "",
    "event_speeches": [
        {
            "speech_title": "Web3 Identity",
            "speech_description": "Ben explains how WIDE and Crypto Ħub Malta explored methods for making credentials accessible to contributors and entities in Web3.",
            "speech_format": "speech",
            "speech_speakers": [
                {
                    "speaker_name": "Ben Biedermann",
                    "speaker_photo_url": "",
                    "speaker_description": "Ben is an expert on decentralised identity and DAO contributor, who focuses on aspects of smallness.",
                    "speaker_links": [
                        {
                            "url": "https://wid3.xyz/#team",
                            "name": ""
                        }

                    ]
                }
            ],
            "speech_links": []
        }
    ]
}
